<svg xmlns="http://www.w3.org/2000/svg" viewBox="2606 206 33.102 33.102">
  <defs>
    <style>
      .cls-1 {
        fill: #cbff62;
      }
    </style>
  </defs>
  <g id="noun_637374_cc_1_" data-name="noun_637374_cc (1)" transform="translate(2570 138)">
    <g transform="translate(36 68)">
      <path class="cls-1" d="M21.551,5A16.551,16.551,0,1,0,38.1,21.551,16.568,16.568,0,0,0,21.551,5Zm0,2.207A14.344,14.344,0,1,1,7.207,21.551,14.327,14.327,0,0,1,21.551,7.207Zm0,5.149a5.534,5.534,0,0,0-5.517,5.517,1.1,1.1,0,1,0,2.207,0,3.31,3.31,0,1,1,6.62,0c.013,1.511-.765,2.284-1.85,3.31a12.655,12.655,0,0,0-1.655,1.747,4.532,4.532,0,0,0-.908,2.667,1.1,1.1,0,1,0,2.207,0,2.136,2.136,0,0,1,.483-1.368,11.937,11.937,0,0,1,1.391-1.448c1.128-1.066,2.551-2.213,2.54-4.908A5.55,5.55,0,0,0,21.551,12.356Zm0,15.447a1.471,1.471,0,1,0,1.471,1.471A1.471,1.471,0,0,0,21.551,27.8Z" transform="translate(-5 -5)"/>
    </g>
  </g>
</svg>
